{
    "20798": {
        "cluster": "High",
        "geohash": "ktk52",
        "latitude": -14.88129,
        "longitude": 28.1687
    },
    "20678": {
        "cluster": "High",
        "geohash": "ktkb5",
        "latitude": -15.458129999999999,
        "longitude": 29.34435
    },
    "31811": {
        "cluster": "Moderate",
        "geohash": "ktkyy",
        "latitude": -14.27769,
        "longitude": 29.474859999999996
    },
    "20480": {
        "cluster": "High",
        "geohash": "kt58r",
        "latitude": -16.78888,
        "longitude": 27.75617
    },
    "20521": {
        "cluster": "Extreme",
        "geohash": "kt59m",
        "latitude": -16.64876,
        "longitude": 27.659229999999997
    },
    "20520": {
        "cluster": "Extreme",
        "geohash": "kt59m",
        "latitude": -16.64789,
        "longitude": 27.66426
    },
    "20721": {
        "cluster": "Extreme",
        "geohash": "kt5ng",
        "latitude": -15.67411,
        "longitude": 26.866659999999996
    },
    "20724": {
        "cluster": "Extreme",
        "geohash": "kt5ng",
        "latitude": -15.671170000000002,
        "longitude": 26.861359999999998
    },
    "20720": {
        "cluster": "Extreme",
        "geohash": "kt5ng",
        "latitude": -15.67332,
        "longitude": 26.8713
    },
    "20722": {
        "cluster": "Extreme",
        "geohash": "kt5ng",
        "latitude": -15.6749,
        "longitude": 26.862029999999997
    },
    "20723": {
        "cluster": "High",
        "geohash": "kt5ng",
        "latitude": -15.66959,
        "longitude": 26.87063
    },
    "20702": {
        "cluster": "High",
        "geohash": "kt5nx",
        "latitude": -15.729420000000001,
        "longitude": 27.03937
    },
    "20701": {
        "cluster": "High",
        "geohash": "kt5nx",
        "latitude": -15.72861,
        "longitude": 27.04409
    },
    "20700": {
        "cluster": "High",
        "geohash": "kt5nx",
        "latitude": -15.73238,
        "longitude": 27.04477
    },
    "20712": {
        "cluster": "High",
        "geohash": "kt5nz",
        "latitude": -15.683679999999999,
        "longitude": 27.061659999999996
    },
    "20710": {
        "cluster": "High",
        "geohash": "kt5nz",
        "latitude": -15.68299,
        "longitude": 27.060259999999996
    },
    "20709": {
        "cluster": "High",
        "geohash": "kt5nz",
        "latitude": -15.682160000000001,
        "longitude": 27.065
    },
    "20688": {
        "cluster": "High",
        "geohash": "kt5wx",
        "latitude": -15.69031,
        "longitude": 27.746959999999998
    },
    "31007": {
        "cluster": "Moderate",
        "geohash": "kt5wy",
        "latitude": -15.6515,
        "longitude": 27.6916
    },
    "31006": {
        "cluster": "Moderate",
        "geohash": "kt5wy",
        "latitude": -15.6479,
        "longitude": 27.69227
    },
    "31008": {
        "cluster": "Moderate",
        "geohash": "kt5wy",
        "latitude": -15.650770000000001,
        "longitude": 27.687309999999997
    },
    "31009": {
        "cluster": "Moderate",
        "geohash": "kt5x1",
        "latitude": -15.622470000000002,
        "longitude": 27.47741
    },
    "31010": {
        "cluster": "Moderate",
        "geohash": "kt5y6",
        "latitude": -15.73714,
        "longitude": 27.883670000000002
    },
    "20648": {
        "cluster": "Extreme",
        "geohash": "kt47y",
        "latitude": -16.19621,
        "longitude": 25.95127
    },
    "20649": {
        "cluster": "High",
        "geohash": "kt47y",
        "latitude": -16.19689,
        "longitude": 25.947110000000002
    },
    "20650": {
        "cluster": "High",
        "geohash": "kt47y",
        "latitude": -16.191979999999997,
        "longitude": 25.9548
    },
    "20646": {
        "cluster": "Extreme",
        "geohash": "kt47y",
        "latitude": -16.19976,
        "longitude": 25.9519
    },
    "20647": {
        "cluster": "High",
        "geohash": "kt47y",
        "latitude": -16.195529999999998,
        "longitude": 25.95543
    },
    "31071": {
        "cluster": "Moderate",
        "geohash": "kt48u",
        "latitude": -16.70823,
        "longitude": 26.213729999999998
    },
    "31023": {
        "cluster": "Moderate",
        "geohash": "kt4u3",
        "latitude": -16.08524,
        "longitude": 26.437890000000003
    },
    "20717": {
        "cluster": "High",
        "geohash": "kt4wh",
        "latitude": -15.786010000000001,
        "longitude": 26.224859999999996
    },
    "20716": {
        "cluster": "High",
        "geohash": "kt4wh",
        "latitude": -15.789620000000001,
        "longitude": 26.22549
    },
    "20538": {
        "cluster": "High",
        "geohash": "kth4q",
        "latitude": -16.440820000000002,
        "longitude": 28.420640000000002
    },
    "20575": {
        "cluster": "High",
        "geohash": "kth5b",
        "latitude": -16.190939999999998,
        "longitude": 28.139
    },
    "20546": {
        "cluster": "High",
        "geohash": "kth6b",
        "latitude": -16.3624,
        "longitude": 28.486009999999997
    },
    "20528": {
        "cluster": "High",
        "geohash": "kth6t",
        "latitude": -16.43139,
        "longitude": 28.706459999999996
    },
    "20527": {
        "cluster": "High",
        "geohash": "kth6t",
        "latitude": -16.43071,
        "longitude": 28.71025
    },
    "31042": {
        "cluster": "Moderate",
        "geohash": "kthb1",
        "latitude": -16.84575,
        "longitude": 29.23457
    },
    "31035": {
        "cluster": "Moderate",
        "geohash": "kthbc",
        "latitude": -16.71259,
        "longitude": 29.2302
    },
    "31033": {
        "cluster": "Moderate",
        "geohash": "kthbc",
        "latitude": -16.7086,
        "longitude": 29.2271
    },
    "31034": {
        "cluster": "Moderate",
        "geohash": "kthbc",
        "latitude": -16.71197,
        "longitude": 29.226470000000003
    },
    "20444": {
        "cluster": "Extreme",
        "geohash": "kthbv",
        "latitude": -16.72192,
        "longitude": 29.443279999999998
    },
    "20443": {
        "cluster": "Extreme",
        "geohash": "kthby",
        "latitude": -16.72113,
        "longitude": 29.447540000000004
    },
    "20445": {
        "cluster": "High",
        "geohash": "kthby",
        "latitude": -16.71605,
        "longitude": 29.451
    },
    "31028": {
        "cluster": "Moderate",
        "geohash": "kthcj",
        "latitude": -16.67547,
        "longitude": 29.41245
    },
    "20622": {
        "cluster": "High",
        "geohash": "kthmc",
        "latitude": -15.826179999999999,
        "longitude": 28.55187
    },
    "20587": {
        "cluster": "High",
        "geohash": "kthmr",
        "latitude": -15.93203,
        "longitude": 28.809209999999997
    },
    "20583": {
        "cluster": "High",
        "geohash": "kthmr",
        "latitude": -15.9362,
        "longitude": 28.810029999999998
    },
    "20624": {
        "cluster": "High",
        "geohash": "kthq4",
        "latitude": -15.80464,
        "longitude": 28.600920000000002
    },
    "20627": {
        "cluster": "High",
        "geohash": "kthq4",
        "latitude": -15.800510000000001,
        "longitude": 28.60012
    },
    "20662": {
        "cluster": "High",
        "geohash": "kthqe",
        "latitude": -15.704770000000002,
        "longitude": 28.64824
    },
    "20661": {
        "cluster": "High",
        "geohash": "kthqe",
        "latitude": -15.704089999999999,
        "longitude": 28.65203
    },
    "20666": {
        "cluster": "High",
        "geohash": "kthqf",
        "latitude": -15.653789999999999,
        "longitude": 28.57452
    },
    "20656": {
        "cluster": "Extreme",
        "geohash": "kthqs",
        "latitude": -15.71171,
        "longitude": 28.65748
    },
    "20660": {
        "cluster": "Extreme",
        "geohash": "kthqs",
        "latitude": -15.702739999999999,
        "longitude": 28.659640000000003
    },
    "20658": {
        "cluster": "Extreme",
        "geohash": "kthqs",
        "latitude": -15.70757,
        "longitude": 28.656640000000003
    },
    "20623": {
        "cluster": "High",
        "geohash": "kthw3",
        "latitude": -15.7481,
        "longitude": 28.915409999999998
    },
    "20985": {
        "cluster": "High",
        "geohash": "kte25",
        "latitude": -14.02646,
        "longitude": 27.212
    },
    "21081": {
        "cluster": "High",
        "geohash": "ktefc",
        "latitude": -13.53677,
        "longitude": 27.8597
    },
    "21080": {
        "cluster": "High",
        "geohash": "kteff",
        "latitude": -13.53611,
        "longitude": 27.86344
    },
    "21371": {
        "cluster": "High",
        "geohash": "kteq5",
        "latitude": -12.98284,
        "longitude": 27.240340000000003
    },
    "21368": {
        "cluster": "High",
        "geohash": "kteqh",
        "latitude": -12.98502,
        "longitude": 27.251409999999996
    },
    "21382": {
        "cluster": "High",
        "geohash": "kteqw",
        "latitude": -12.91935,
        "longitude": 27.361729999999998
    },
    "21411": {
        "cluster": "High",
        "geohash": "kteqy",
        "latitude": -12.84194,
        "longitude": 27.355320000000003
    },
    "31808": {
        "cluster": "Moderate",
        "geohash": "ktezz",
        "latitude": -12.65674,
        "longitude": 28.10417
    },
    "21071": {
        "cluster": "High",
        "geohash": "ktd2e",
        "latitude": -13.93552,
        "longitude": 25.83296
    },
    "21216": {
        "cluster": "High",
        "geohash": "ktd6y",
        "latitude": -13.55141,
        "longitude": 25.94258
    },
    "21079": {
        "cluster": "High",
        "geohash": "ktdc2",
        "latitude": -13.800120000000001,
        "longitude": 26.375490000000003
    },
    "21121": {
        "cluster": "High",
        "geohash": "ktddj",
        "latitude": -13.66804,
        "longitude": 26.23726
    },
    "21120": {
        "cluster": "High",
        "geohash": "ktddj",
        "latitude": -13.669210000000001,
        "longitude": 26.23653
    },
    "21443": {
        "cluster": "High",
        "geohash": "ktdmf",
        "latitude": -13.03075,
        "longitude": 25.77347
    },
    "21430": {
        "cluster": "High",
        "geohash": "ktdms",
        "latitude": -13.05284,
        "longitude": 25.84477
    },
    "21429": {
        "cluster": "High",
        "geohash": "ktdms",
        "latitude": -13.05212,
        "longitude": 25.84919
    },
    "21442": {
        "cluster": "High",
        "geohash": "ktdqp",
        "latitude": -12.992519999999999,
        "longitude": 26.00319
    },
    "21295": {
        "cluster": "High",
        "geohash": "ktdud",
        "latitude": -13.26796,
        "longitude": 26.48173
    },
    "21259": {
        "cluster": "High",
        "geohash": "ktduj",
        "latitude": -13.352360000000001,
        "longitude": 26.60213
    },
    "21255": {
        "cluster": "High",
        "geohash": "ktduj",
        "latitude": -13.35857,
        "longitude": 26.588440000000002
    },
    "21465": {
        "cluster": "High",
        "geohash": "ktdw7",
        "latitude": -12.94506,
        "longitude": 26.17207
    },
    "21457": {
        "cluster": "High",
        "geohash": "ktdwm",
        "latitude": -12.94015,
        "longitude": 26.2468
    },
    "21463": {
        "cluster": "Extreme",
        "geohash": "ktdwm",
        "latitude": -12.93561,
        "longitude": 26.2508
    },
    "21456": {
        "cluster": "Extreme",
        "geohash": "ktdwm",
        "latitude": -12.93937,
        "longitude": 26.251459999999998
    },
    "21058": {
        "cluster": "High",
        "geohash": "kts4c",
        "latitude": -13.575579999999999,
        "longitude": 28.1786
    },
    "21032": {
        "cluster": "High",
        "geohash": "kts4h",
        "latitude": -13.669620000000002,
        "longitude": 28.30798
    },
    "21274": {
        "cluster": "High",
        "geohash": "ktsnh",
        "latitude": -12.993319999999999,
        "longitude": 28.33653
    },
    "21301": {
        "cluster": "High",
        "geohash": "ktsnr",
        "latitude": -12.92274,
        "longitude": 28.44637
    },
    "21300": {
        "cluster": "High",
        "geohash": "ktsnx",
        "latitude": -12.919830000000001,
        "longitude": 28.46295
    },
    "21344": {
        "cluster": "High",
        "geohash": "ktsrr",
        "latitude": -12.75817,
        "longitude": 28.81888
    },
    "21377": {
        "cluster": "High",
        "geohash": "ktsru",
        "latitude": -12.68975,
        "longitude": 28.69387
    },
    "21294": {
        "cluster": "High",
        "geohash": "ktswb",
        "latitude": -12.86875,
        "longitude": 28.829390000000004
    },
    "20750": {
        "cluster": "High",
        "geohash": "kt703",
        "latitude": -15.389529999999999,
        "longitude": 26.786440000000002
    },
    "31003": {
        "cluster": "Moderate",
        "geohash": "kt785",
        "latitude": -15.43232,
        "longitude": 27.58982
    },
    "31004": {
        "cluster": "Moderate",
        "geohash": "kt785",
        "latitude": -15.43595,
        "longitude": 27.589140000000004
    },
    "20792": {
        "cluster": "High",
        "geohash": "kt7fv",
        "latitude": -14.94382,
        "longitude": 28.004609999999996
    },
    "20791": {
        "cluster": "High",
        "geohash": "kt7fv",
        "latitude": -14.943179999999998,
        "longitude": 28.00828
    },
    "20796": {
        "cluster": "High",
        "geohash": "kt7gj",
        "latitude": -14.939789999999999,
        "longitude": 28.003870000000003
    },
    "20795": {
        "cluster": "High",
        "geohash": "kt7gj",
        "latitude": -14.9385,
        "longitude": 28.01118
    },
    "20794": {
        "cluster": "Extreme",
        "geohash": "kt7gj",
        "latitude": -14.93914,
        "longitude": 28.00753
    },
    "19623": {
        "cluster": "High",
        "geohash": "kt7r9",
        "latitude": -14.14998,
        "longitude": 27.147
    },
    "20968": {
        "cluster": "High",
        "geohash": "kt7r9",
        "latitude": -14.14909,
        "longitude": 27.152040000000003
    },
    "20969": {
        "cluster": "High",
        "geohash": "kt7r9",
        "latitude": -14.1496,
        "longitude": 27.14875
    }
}